@startuml

skinparam monochrome true
skinparam packageStyle rect
skinparam defaultFontName FG Virgil
skinparam shadowing false
skinparam linetype ortho

class Group {
- description : Description
- creationDate : CreationDate
- members : Set <Person>
- managers : Set <Person>
+ Group()
+ addAccount \n(denomination: String,\ndescription: String)
}

class Account {
+ Account()
}

class Denomination {
- denomination : String
}

class Description {
- description : String
}

class Accounts {
+ addAccount \n(denomination: String,\ndescription: String)
}

Group --right>"   1 " Accounts : "has"
Accounts  --right> "*" Account : groupsAccounts
Account --> "1   " Denomination : has
Account --> "1" Description : has

@enduml