@startuml

skinparam defaultFontSize 16

skinparam sequence {
   ArrowColor blue
   LifeLineBorderColor blue
   ParticipantBorderColor blue
   ParticipantBackgroundColor transparent
   ParticipantFontSize 16
   ActorFontColor blue
   ActorFontSize 15
   ActorFontName blue }
hide footbox

autonumber "8-16-"

participant ":GroupRepository" as groupRepo
participant ":GroupJPARepository" as groupJpaRepo
participant ":GroupDomainDataAssembler" as groupJpaAssembler
participant "updatedGroupJPA\n:GroupJpa" as updatedGroupJpa
participant "savedGroupJPA\n:GroupJpa" as savedGroupJpa
participant "savedGroup\n:Group" as savedGroup

group SD save ( group )
-> groupRepo : savedGroup = save (group)
groupRepo -> groupJpaAssembler : updatedGroupJPA = toData (group)
groupJpaAssembler -> updatedGroupJpa *: ( )
groupRepo -> groupJpaRepo : savedGroupJPA = save (updatedGroupJPA)
groupJpaRepo -> savedGroupJpa *: ( )
groupRepo -> groupJpaAssembler : savedGroup = toDomain (savedGroupJPA)
groupJpaAssembler -> savedGroup *: (savedGroupJPA.getID ( ), \n savedGroupJPA.getDescription ( ), \n savedGroupJPA.getCreationDate ( ), \n savedGroupJPA.getCreator ( ), \n savedGroupJPA.getLedgerID ( ))

end

@enduml