@startuml

skinparam defaultFontSize 16

skinparam sequence {
   ArrowColor blue
   LifeLineBorderColor blue
   ParticipantBorderColor blue
   ParticipantBackgroundColor transparent
   ParticipantFontSize 16
   ActorFontColor blue
   ActorFontSize 15
   ActorFontName blue }
hide footbox

autonumber "8-14-"

participant ":AccountRepository" as accountRepo
participant ":AccountJPARepository" as accountJpaRepo
participant ":AccountDomainDataAssembler" as accountJpaAssembler
participant "updatedAccountJPA\n:AccountJpa" as updatedAccountJpa
participant "savedAccountJPA\n:AccountJpa" as savedAccountJpa
participant "savedAccount\n:Group" as savedAccount

group SD save( account )
-> accountRepo : savedAccount = save (account)
accountRepo -> accountJpaAssembler : updatedAccountJPA = toData (account)
accountJpaAssembler -> updatedAccountJpa *: ( )
accountRepo -> accountJpaRepo : savedAccountJPA = save (updatedAccountJPA)
accountJpaRepo -> savedAccountJpa *: ( )
accountRepo -> accountJpaAssembler : savedAccount = toDomain (savedAccountJPA)
accountJpaAssembler -> savedAccount *: (accountJpa.getId(), \n accountJpa.getDenomination( ), \n accountJpa.getDescription( ))


end

@enduml